[
	{
		"id": "637a82da-b037-11e8-b2f1-0aad132fb7ee",
		"contentType": "Todo",
		"parent": null,
		"copyOf": null,
		"dimensions": [],
		"configurations": [
			{
				"isDone": false
			}
		],
		"properties": [],
		"title": "Hest",
		"sortIndex": 0,
		"body": "Hest",
		"ownerUser": null,
		"ownerAccount": null,
		"createdAt": "2018-09-04T13:40:57+02:00",
		"updatedAt": "2018-09-04T13:40:57+02:00"
	}
]
